WQD 7004 GROUP PROJECT
…
Data cleaning for df_zipcode:

1. Remove unnecessary columns

2. Remove duplicate rows using zipcode variable

## Removing the unnecessary information
df_zipcode <- df_zipcode[ -c(2:3,5,7:18) ]

## Removing duplicate rows using the zipcode variable
library(dplyr)
df_zipcode %>% distinct(zip, .keep_all= TRUE)

## # A tibble: 33,121 x 3
##      zip city        state_name 
##    <dbl> <chr>       <chr>      
##  1   601 Adjuntas    Puerto Rico
##  2   602 Aguada      Puerto Rico
##  3   603 Aguadilla   Puerto Rico
##  4   606 Maricao     Puerto Rico
##  5   610 Anasco      Puerto Rico
##  6   612 Arecibo     Puerto Rico
##  7   616 Bajadero    Puerto Rico
##  8   617 Barceloneta Puerto Rico
##  9   622 Boqueron    Puerto Rico
## 10   623 Cabo Rojo   Puerto Rico
## # ... with 33,111 more rows
…
